; Engine configuration file.
; It's best edited using the editor UI and not directly,
; since the parameters that go here are not all obvious.
;
; Format:
;   [section] ; section goes between []
;   param=value ; assign values to parameters

config_version=5

[application]

config/name="gs-lootlocker"
config/description="None"
run/main_scene="res://gs_lootlocker_test/loot_locker_test.tscn"
config/features=PackedStringArray("4.1")
config/version="0.0.0"

[autoload]

LootLocker="*res://addons/gs_lootlocker/lootlocker.tscn"
